FrequentistModels
…
Number of Fisher Scoring iterations: 5

# 4. Odds ratios (exponentiated coefficients) with 95% CI
or_table <- broom::tidy(final_glm, conf.int = TRUE) %>%
  mutate(
    OR = exp(estimate),
    OR_low = exp(conf.low),
    OR_high = exp(conf.high)
  ) %>%
  select(term, estimate, OR, OR_low, OR_high, p.value)
print(or_table)

# A tibble: 27 × 6
   term                  estimate         OR    OR_low     OR_high  p.value
   <chr>                    <dbl>      <dbl>     <dbl>       <dbl>    <dbl>
 1 (Intercept)            12.9    397869.    81557.    2113641.    1.93e-54
 2 Age_imp                -0.145       0.865     0.849       0.880 2.95e-57
 3 PreHospNotify_imp_num  -0.0961      0.908     0.603       1.36  6.42e- 1
 4 EMSvsCar_imp_num       -0.885       0.413     0.211       0.782 7.93e- 3
 5 GenderFemale           -0.0982      0.906     0.694       1.18  4.71e- 1
 6 Race2African American  -1.12        0.327     0.231       0.461 2.40e-10
 7 Race2Other             -1.30        0.274     0.148       0.515 4.62e- 5
 8 Race2Missing           -0.0984      0.906     0.454       1.84  7.83e- 1
 9 siteID110              -0.0362      0.964     0.482       1.93  9.18e- 1
10 siteID120              -0.572       0.565     0.254       1.26  1.60e- 1
# ℹ 17 more rows
…
Number of Fisher Scoring iterations: 5

or_table <- broom::tidy(final_glm_phase, conf.int = TRUE) %>%
  mutate(
    OR = exp(estimate),
    OR_low = exp(conf.low),
    OR_high = exp(conf.high)
  ) %>%
  select(term, estimate, OR, OR_low, OR_high, p.value) %>%
  arrange(p.value)

print(or_table)

# A tibble: 29 × 6
   term                      estimate         OR    OR_low     OR_high  p.value
   <chr>                        <dbl>      <dbl>     <dbl>       <dbl>    <dbl>
 1 Age_imp                     -0.145      0.865     0.849       0.880 2.95e-57
 2 (Intercept)                 12.9   397869.    81557.    2113641.    1.93e-54
 3 Race2African American       -1.12       0.327     0.231       0.461 2.40e-10
 4 hadThrombectomyTRUE         -0.988      0.372     0.262       0.527 2.84e- 8
 5 Race2Other                  -1.30       0.274     0.148       0.515 4.62e- 5
 6 tpaComplicTRUE              -1.21       0.297     0.138       0.634 1.75e- 3
 7 siteID130                   -0.908      0.403     0.220       0.729 2.95e- 3
 8 thrComplicTRUE              -1.15       0.317     0.132       0.714 7.27e- 3
 9 EMSvsCar_imp_num            -0.885      0.413     0.211       0.782 7.93e- 3
10 phase_groupimplementation    0.788      2.20      1.22        3.97  8.83e- 3
# ℹ 19 more rows
…
