EDA
…
Warning: glm.fit: algorithm did not converge
Warning: glm.fit: algorithm did not converge
Warning: glm.fit: algorithm did not converge

Warning: glm.fit: fitted probabilities numerically 0 or 1 occurred

Warning: glm.fit: algorithm did not converge
Warning: glm.fit: algorithm did not converge
Warning: glm.fit: algorithm did not converge
Warning: glm.fit: algorithm did not converge

mar_results

# A tibble: 180 × 6
   term             estimate std.error statistic p.value variable
   <chr>               <dbl>     <dbl>     <dbl>   <dbl> <chr>   
 1 (Intercept)     -2.66e+ 1    93015. -2.86e- 4    1.00 Age     
 2 homeOrRehabTRUE  4.64e-16    28502.  1.63e-20    1    Age     
 3 siteID110       -1.04e-15    41348. -2.51e-20    1    Age     
 4 siteID120       -5.15e-15    51257. -1.00e-19    1    Age     
 5 siteID130       -1.20e-14    41749. -2.87e-19    1    Age     
 6 siteID150       -6.76e-15   255408. -2.65e-20    1    Age     
 7 siteID160       -1.67e-15    38638. -4.31e-20    1    Age     
 8 siteID180       -5.35e-15    44594. -1.20e-19    1    Age     
 9 Time2Y1Q2        7.65e-15    68106.  1.12e-19    1    Age     
10 Time2Y1Q3        7.58e-15    69784.  1.09e-19    1    Age     
# ℹ 170 more rows
…
